^E:\UNIVERSITY\CIS5013\CODE DEMO\RTGRAPHICS_3D_VBO\X64\DEBUG\AIWRAPPER.OBJ|E:\UNIVERSITY\CIS5013\CODE DEMO\RTGRAPHICS_3D_VBO\X64\DEBUG\CGPRINCIPLEAXES.OBJ|E:\UNIVERSITY\CIS5013\CODE DEMO\RTGRAPHICS_3D_VBO\X64\DEBUG\CGTEXTUREDQUAD.OBJ|E:\UNIVERSITY\CIS5013\CODE DEMO\RTGRAPHICS_3D_VBO\X64\DEBUG\GURIFFMODEL.OBJ|E:\UNIVERSITY\CIS5013\CODE DEMO\RTGRAPHICS_3D_VBO\X64\DEBUG\MESHVBOS.OBJ|E:\UNIVERSITY\CIS5013\CODE DEMO\RTGRAPHICS_3D_VBO\X64\DEBUG\OBJIMPORTER.OBJ|E:\UNIVERSITY\CIS5013\CODE DEMO\RTGRAPHICS_3D_VBO\X64\DEBUG\RTGRAPHICS_3D.OBJ|E:\UNIVERSITY\CIS5013\CODE DEMO\RTGRAPHICS_3D_VBO\X64\DEBUG\SCENEVBOS.OBJ|E:\UNIVERSITY\CIS5013\CODE DEMO\RTGRAPHICS_3D_VBO\X64\DEBUG\SHADER_SETUP.OBJ|E:\UNIVERSITY\CIS5013\CODE DEMO\RTGRAPHICS_3D_VBO\X64\DEBUG\TEXTURE_LOADER.OBJ
/OUT:"E:\UNIVERSITY\CIS5013\CODE DEMO\RTGRAPHICS_3D_VBO\X64\DEBUG\RTGRAPHICS_3D.EXE" /INCREMENTAL /NOLOGO CORESTRUCTURES.LIB FREEGLUT.LIB GLEW32.LIB "ASSIMP-VC140-MT.LIB" FREEIMAGE.LIB FREEIMAGEPLUS.LIB KERNEL32.LIB USER32.LIB GDI32.LIB WINSPOOL.LIB COMDLG32.LIB ADVAPI32.LIB SHELL32.LIB OLE32.LIB OLEAUT32.LIB UUID.LIB ODBC32.LIB ODBCCP32.LIB OPENAL32.LIB "EFX-UTIL.LIB" KERNEL32.LIB USER32.LIB GDI32.LIB WINSPOOL.LIB COMDLG32.LIB ADVAPI32.LIB SHELL32.LIB OLE32.LIB OLEAUT32.LIB UUID.LIB ODBC32.LIB ODBCCP32.LIB /MANIFEST /MANIFESTUAC:"level='asInvoker' uiAccess='false'" /manifest:embed /DEBUG:FASTLINK /PDB:"E:\UNIVERSITY\CIS5013\CODE DEMO\RTGRAPHICS_3D_VBO\X64\DEBUG\RTGRAPHICS_3D.PDB" /SUBSYSTEM:CONSOLE /TLBID:1 /DYNAMICBASE /NXCOMPAT /IMPLIB:"E:\UNIVERSITY\CIS5013\CODE DEMO\RTGRAPHICS_3D_VBO\X64\DEBUG\RTGRAPHICS_3D.LIB" /MACHINE:X64 X64\DEBUG\OBJIMPORTER.OBJ
X64\DEBUG\RTGRAPHICS_3D.OBJ
X64\DEBUG\AIWRAPPER.OBJ
X64\DEBUG\CGPRINCIPLEAXES.OBJ
X64\DEBUG\CGTEXTUREDQUAD.OBJ
X64\DEBUG\GURIFFMODEL.OBJ
X64\DEBUG\MESHVBOS.OBJ
X64\DEBUG\SCENEVBOS.OBJ
X64\DEBUG\SHADER_SETUP.OBJ
X64\DEBUG\TEXTURE_LOADER.OBJ
