^E:\UNIVERSITY\CIS5013\CODE DEMO\RTGRAPHICS_3D_VBO\X64\DEBUG\AIWRAPPER.OBJ|E:\UNIVERSITY\CIS5013\CODE DEMO\RTGRAPHICS_3D_VBO\X64\DEBUG\CGPRINCIPLEAXES.OBJ|E:\UNIVERSITY\CIS5013\CODE DEMO\RTGRAPHICS_3D_VBO\X64\DEBUG\CGTEXTUREDQUAD.OBJ|E:\UNIVERSITY\CIS5013\CODE DEMO\RTGRAPHICS_3D_VBO\X64\DEBUG\GURIFFMODEL.OBJ|E:\UNIVERSITY\CIS5013\CODE DEMO\RTGRAPHICS_3D_VBO\X64\DEBUG\MESHVBOS.OBJ|E:\UNIVERSITY\CIS5013\CODE DEMO\RTGRAPHICS_3D_VBO\X64\DEBUG\OBJIMPORTER.OBJ|E:\UNIVERSITY\CIS5013\CODE DEMO\RTGRAPHICS_3D_VBO\X64\DEBUG\RTGRAPHICS_3D.OBJ|E:\UNIVERSITY\CIS5013\CODE DEMO\RTGRAPHICS_3D_VBO\X64\DEBUG\SCENEVBOS.OBJ|E:\UNIVERSITY\CIS5013\CODE DEMO\RTGRAPHICS_3D_VBO\X64\DEBUG\SHADER_SETUP.OBJ|E:\UNIVERSITY\CIS5013\CODE DEMO\RTGRAPHICS_3D_VBO\X64\DEBUG\TEXTURE_LOADER.OBJ
E:\UNIVERSITY\CIS5013\CODE DEMO\COMMON2\LIBS\CORESTRUCTURES\LIB\X64\DEBUG\CORESTRUCTURES.LIB
E:\UNIVERSITY\CIS5013\CODE DEMO\COMMON2\LIBS\FREEGLUT\LIB\X64\FREEGLUT.LIB
E:\UNIVERSITY\CIS5013\CODE DEMO\COMMON2\LIBS\GLEW-2.1.0\LIB\RELEASE\X64\GLEW32.LIB
E:\UNIVERSITY\CIS5013\CODE DEMO\COMMON2\LIBS\ASSIMP\LIB\X64\ASSIMP-VC140-MT.LIB
E:\UNIVERSITY\CIS5013\CODE DEMO\COMMON2\LIBS\FREEIMAGE-3.18.0\DIST\X64\FREEIMAGE.LIB
E:\UNIVERSITY\CIS5013\CODE DEMO\COMMON2\LIBS\FREEIMAGE-3.17.0\WRAPPER\FREEIMAGEPLUS\DIST\X64\FREEIMAGEPLUS.LIB
C:\PROGRAM FILES (X86)\WINDOWS KITS\10\LIB\10.0.19041.0\UM\X64\KERNEL32.LIB
C:\PROGRAM FILES (X86)\WINDOWS KITS\10\LIB\10.0.19041.0\UM\X64\USER32.LIB
C:\PROGRAM FILES (X86)\WINDOWS KITS\10\LIB\10.0.19041.0\UM\X64\GDI32.LIB
C:\PROGRAM FILES (X86)\WINDOWS KITS\10\LIB\10.0.19041.0\UM\X64\WINSPOOL.LIB
C:\PROGRAM FILES (X86)\WINDOWS KITS\10\LIB\10.0.19041.0\UM\X64\COMDLG32.LIB
C:\PROGRAM FILES (X86)\WINDOWS KITS\10\LIB\10.0.19041.0\UM\X64\ADVAPI32.LIB
C:\PROGRAM FILES (X86)\WINDOWS KITS\10\LIB\10.0.19041.0\UM\X64\SHELL32.LIB
C:\PROGRAM FILES (X86)\WINDOWS KITS\10\LIB\10.0.19041.0\UM\X64\OLE32.LIB
C:\PROGRAM FILES (X86)\WINDOWS KITS\10\LIB\10.0.19041.0\UM\X64\OLEAUT32.LIB
C:\PROGRAM FILES (X86)\WINDOWS KITS\10\LIB\10.0.19041.0\UM\X64\UUID.LIB
C:\PROGRAM FILES (X86)\WINDOWS KITS\10\LIB\10.0.19041.0\UM\X64\ODBC32.LIB
C:\PROGRAM FILES (X86)\WINDOWS KITS\10\LIB\10.0.19041.0\UM\X64\ODBCCP32.LIB
E:\UNIVERSITY\CIS5013\CODE DEMO\COMMON2\LIBS\OAL_VER1.1\LIBS\WIN64\OPENAL32.LIB
E:\UNIVERSITY\CIS5013\CODE DEMO\COMMON2\LIBS\OAL_VER1.1\LIBS\WIN64\EFX-UTIL.LIB
E:\UNIVERSITY\CIS5013\CODE DEMO\RTGRAPHICS_3D_VBO\X64\DEBUG\OBJIMPORTER.OBJ
E:\UNIVERSITY\CIS5013\CODE DEMO\RTGRAPHICS_3D_VBO\X64\DEBUG\RTGRAPHICS_3D.OBJ
E:\UNIVERSITY\CIS5013\CODE DEMO\RTGRAPHICS_3D_VBO\X64\DEBUG\AIWRAPPER.OBJ
E:\UNIVERSITY\CIS5013\CODE DEMO\RTGRAPHICS_3D_VBO\X64\DEBUG\CGPRINCIPLEAXES.OBJ
E:\UNIVERSITY\CIS5013\CODE DEMO\RTGRAPHICS_3D_VBO\X64\DEBUG\CGTEXTUREDQUAD.OBJ
E:\UNIVERSITY\CIS5013\CODE DEMO\RTGRAPHICS_3D_VBO\X64\DEBUG\GURIFFMODEL.OBJ
E:\UNIVERSITY\CIS5013\CODE DEMO\RTGRAPHICS_3D_VBO\X64\DEBUG\MESHVBOS.OBJ
E:\UNIVERSITY\CIS5013\CODE DEMO\RTGRAPHICS_3D_VBO\X64\DEBUG\SCENEVBOS.OBJ
E:\UNIVERSITY\CIS5013\CODE DEMO\RTGRAPHICS_3D_VBO\X64\DEBUG\SHADER_SETUP.OBJ
E:\UNIVERSITY\CIS5013\CODE DEMO\RTGRAPHICS_3D_VBO\X64\DEBUG\TEXTURE_LOADER.OBJ
C:\WINDOWS\SYSTEM32\TZRES.DLL
C:\WINDOWS\GLOBALIZATION\SORTING\SORTDEFAULT.NLS
C:\PROGRAM FILES (X86)\MICROSOFT VISUAL STUDIO\2019\COMMUNITY\VC\TOOLS\MSVC\14.28.29910\LIB\X64\MSVCPRTD.LIB
C:\PROGRAM FILES (X86)\MICROSOFT VISUAL STUDIO\2019\COMMUNITY\VC\TOOLS\MSVC\14.28.29910\LIB\X64\MSVCRTD.LIB
C:\PROGRAM FILES (X86)\MICROSOFT VISUAL STUDIO\2019\COMMUNITY\VC\TOOLS\MSVC\14.28.29910\LIB\X64\OLDNAMES.LIB
C:\PROGRAM FILES (X86)\WINDOWS KITS\10\LIB\10.0.19041.0\UM\X64\GLU32.LIB
C:\PROGRAM FILES (X86)\WINDOWS KITS\10\LIB\10.0.19041.0\UM\X64\OPENGL32.LIB
C:\PROGRAM FILES (X86)\WINDOWS KITS\10\LIB\10.0.19041.0\UM\X64\WINMM.LIB
C:\PROGRAM FILES (X86)\MICROSOFT VISUAL STUDIO\2019\COMMUNITY\VC\TOOLS\MSVC\14.28.29910\LIB\X64\VCRUNTIMED.LIB
C:\PROGRAM FILES (X86)\WINDOWS KITS\10\LIB\10.0.19041.0\UCRT\X64\UCRTD.LIB
